{
	"textures": [
		{
			"image": "newatlas.png",
			"format": "RGBA8888",
			"size": {
				"w": 2004,
				"h": 1212
			},
			"scale": 1,
			"frames": [
				{
					"filename": "enemy_animals.png",
					"rotated": false,
					"trimmed": true,
					"sourceSize": {
						"w": 384,
						"h": 768
					},
					"spriteSourceSize": {
						"x": 1,
						"y": 2,
						"w": 383,
						"h": 751
					},
					"frame": {
						"x": 1,
						"y": 1,
						"w": 383,
						"h": 751
					}
				},
				{
					"filename": "tornado.png",
					"rotated": false,
					"trimmed": true,
					"sourceSize": {
						"w": 512,
						"h": 512
					},
					"spriteSourceSize": {
						"x": 29,
						"y": 50,
						"w": 451,
						"h": 457
					},
					"frame": {
						"x": 1,
						"y": 754,
						"w": 451,
						"h": 457
					}
				},
				{
					"filename": "lightningclaw.png",
					"rotated": false,
					"trimmed": true,
					"sourceSize": {
						"w": 512,
						"h": 512
					},
					"spriteSourceSize": {
						"x": 7,
						"y": 4,
						"w": 477,
						"h": 482
					},
					"frame": {
						"x": 386,
						"y": 1,
						"w": 477,
						"h": 482
					}
				},
				{
					"filename": "iceshield.png",
					"rotated": false,
					"trimmed": true,
					"sourceSize": {
						"w": 512,
						"h": 512
					},
					"spriteSourceSize": {
						"x": 19,
						"y": 43,
						"w": 462,
						"h": 441
					},
					"frame": {
						"x": 865,
						"y": 1,
						"w": 462,
						"h": 441
					}
				},
				{
					"filename": "icetacle.png",
					"rotated": false,
					"trimmed": true,
					"sourceSize": {
						"w": 512,
						"h": 512
					},
					"spriteSourceSize": {
						"x": 5,
						"y": 71,
						"w": 483,
						"h": 419
					},
					"frame": {
						"x": 1329,
						"y": 1,
						"w": 483,
						"h": 419
					}
				},
				{
					"filename": "spikes.png",
					"rotated": false,
					"trimmed": true,
					"sourceSize": {
						"w": 640,
						"h": 256
					},
					"spriteSourceSize": {
						"x": 24,
						"y": 30,
						"w": 598,
						"h": 226
					},
					"frame": {
						"x": 386,
						"y": 485,
						"w": 598,
						"h": 226
					}
				},
				{
					"filename": "turtleshell_front.png",
					"rotated": false,
					"trimmed": true,
					"sourceSize": {
						"w": 512,
						"h": 512
					},
					"spriteSourceSize": {
						"x": 23,
						"y": 43,
						"w": 454,
						"h": 442
					},
					"frame": {
						"x": 454,
						"y": 713,
						"w": 454,
						"h": 442
					}
				},
				{
					"filename": "bahamut.png",
					"rotated": false,
					"trimmed": true,
					"sourceSize": {
						"w": 384,
						"h": 384
					},
					"spriteSourceSize": {
						"x": 0,
						"y": 1,
						"w": 384,
						"h": 383
					},
					"frame": {
						"x": 986,
						"y": 444,
						"w": 384,
						"h": 383
					}
				},
				{
					"filename": "leviathan.png",
					"rotated": false,
					"trimmed": false,
					"sourceSize": {
						"w": 384,
						"h": 384
					},
					"spriteSourceSize": {
						"x": 0,
						"y": 0,
						"w": 384,
						"h": 384
					},
					"frame": {
						"x": 1372,
						"y": 422,
						"w": 384,
						"h": 384
					}
				},
				{
					"filename": "phoenix.png",
					"rotated": false,
					"trimmed": true,
					"sourceSize": {
						"w": 384,
						"h": 384
					},
					"spriteSourceSize": {
						"x": 0,
						"y": 11,
						"w": 378,
						"h": 364
					},
					"frame": {
						"x": 910,
						"y": 829,
						"w": 378,
						"h": 364
					}
				},
				{
					"filename": "spritetest2.png",
					"rotated": false,
					"trimmed": true,
					"sourceSize": {
						"w": 200,
						"h": 340
					},
					"spriteSourceSize": {
						"x": 6,
						"y": 9,
						"w": 192,
						"h": 331
					},
					"frame": {
						"x": 1290,
						"y": 829,
						"w": 192,
						"h": 331
					}
				},
				{
					"filename": "blanca.png",
					"rotated": false,
					"trimmed": true,
					"sourceSize": {
						"w": 192,
						"h": 192
					},
					"spriteSourceSize": {
						"x": 0,
						"y": 3,
						"w": 192,
						"h": 189
					},
					"frame": {
						"x": 1484,
						"y": 808,
						"w": 192,
						"h": 189
					}
				},
				{
					"filename": "shiva.png",
					"rotated": false,
					"trimmed": true,
					"sourceSize": {
						"w": 168,
						"h": 192
					},
					"spriteSourceSize": {
						"x": 1,
						"y": 2,
						"w": 165,
						"h": 188
					},
					"frame": {
						"x": 1814,
						"y": 1,
						"w": 165,
						"h": 188
					}
				},
				{
					"filename": "nagaserpent.png",
					"rotated": false,
					"trimmed": true,
					"sourceSize": {
						"w": 128,
						"h": 208
					},
					"spriteSourceSize": {
						"x": 0,
						"y": 1,
						"w": 128,
						"h": 206
					},
					"frame": {
						"x": 1814,
						"y": 191,
						"w": 128,
						"h": 206
					}
				},
				{
					"filename": "lightning1.png",
					"rotated": false,
					"trimmed": true,
					"sourceSize": {
						"w": 200,
						"h": 100
					},
					"spriteSourceSize": {
						"x": 1,
						"y": 0,
						"w": 190,
						"h": 100
					},
					"frame": {
						"x": 1484,
						"y": 999,
						"w": 190,
						"h": 100
					}
				},
				{
					"filename": "alberto.png",
					"rotated": false,
					"trimmed": true,
					"sourceSize": {
						"w": 128,
						"h": 212
					},
					"spriteSourceSize": {
						"x": 4,
						"y": 3,
						"w": 120,
						"h": 208
					},
					"frame": {
						"x": 1678,
						"y": 808,
						"w": 120,
						"h": 208
					}
				},
				{
					"filename": "berserker_f.png",
					"rotated": false,
					"trimmed": true,
					"sourceSize": {
						"w": 128,
						"h": 208
					},
					"spriteSourceSize": {
						"x": 4,
						"y": 0,
						"w": 120,
						"h": 207
					},
					"frame": {
						"x": 1758,
						"y": 422,
						"w": 120,
						"h": 207
					}
				},
				{
					"filename": "pirate_m2.png",
					"rotated": false,
					"trimmed": true,
					"sourceSize": {
						"w": 128,
						"h": 192
					},
					"spriteSourceSize": {
						"x": 3,
						"y": 0,
						"w": 123,
						"h": 191
					},
					"frame": {
						"x": 1880,
						"y": 399,
						"w": 123,
						"h": 191
					}
				},
				{
					"filename": "aluxesblack.png",
					"rotated": false,
					"trimmed": true,
					"sourceSize": {
						"w": 128,
						"h": 192
					},
					"spriteSourceSize": {
						"x": 3,
						"y": 2,
						"w": 123,
						"h": 189
					},
					"frame": {
						"x": 1880,
						"y": 592,
						"w": 123,
						"h": 189
					}
				},
				{
					"filename": "bigboss.png",
					"rotated": false,
					"trimmed": true,
					"sourceSize": {
						"w": 128,
						"h": 192
					},
					"spriteSourceSize": {
						"x": 2,
						"y": 0,
						"w": 126,
						"h": 191
					},
					"frame": {
						"x": 1800,
						"y": 783,
						"w": 126,
						"h": 191
					}
				},
				{
					"filename": "magratgarlick.png",
					"rotated": false,
					"trimmed": true,
					"sourceSize": {
						"w": 128,
						"h": 192
					},
					"spriteSourceSize": {
						"x": 2,
						"y": 4,
						"w": 125,
						"h": 188
					},
					"frame": {
						"x": 1676,
						"y": 1018,
						"w": 125,
						"h": 188
					}
				},
				{
					"filename": "pirate_m1.png",
					"rotated": false,
					"trimmed": true,
					"sourceSize": {
						"w": 128,
						"h": 192
					},
					"spriteSourceSize": {
						"x": 3,
						"y": 1,
						"w": 122,
						"h": 190
					},
					"frame": {
						"x": 1803,
						"y": 976,
						"w": 122,
						"h": 190
					}
				},
				{
					"filename": "upg_axe.png",
					"rotated": false,
					"trimmed": true,
					"sourceSize": {
						"w": 64,
						"h": 64
					},
					"spriteSourceSize": {
						"x": 2,
						"y": 4,
						"w": 61,
						"h": 59
					},
					"frame": {
						"x": 910,
						"y": 713,
						"w": 61,
						"h": 59
					}
				},
				{
					"filename": "axe2.png",
					"rotated": false,
					"trimmed": true,
					"sourceSize": {
						"w": 64,
						"h": 64
					},
					"spriteSourceSize": {
						"x": 2,
						"y": 5,
						"w": 60,
						"h": 58
					},
					"frame": {
						"x": 1758,
						"y": 631,
						"w": 60,
						"h": 58
					}
				},
				{
					"filename": "axe.png",
					"rotated": false,
					"trimmed": true,
					"sourceSize": {
						"w": 64,
						"h": 64
					},
					"spriteSourceSize": {
						"x": 5,
						"y": 0,
						"w": 53,
						"h": 64
					},
					"frame": {
						"x": 1928,
						"y": 783,
						"w": 53,
						"h": 64
					}
				},
				{
					"filename": "upg_shieldSmall.png",
					"rotated": false,
					"trimmed": true,
					"sourceSize": {
						"w": 64,
						"h": 64
					},
					"spriteSourceSize": {
						"x": 10,
						"y": 9,
						"w": 38,
						"h": 39
					},
					"frame": {
						"x": 386,
						"y": 713,
						"w": 38,
						"h": 39
					}
				},
				{
					"filename": "backpack.png",
					"rotated": false,
					"trimmed": true,
					"sourceSize": {
						"w": 64,
						"h": 64
					},
					"spriteSourceSize": {
						"x": 13,
						"y": 10,
						"w": 38,
						"h": 43
					},
					"frame": {
						"x": 1803,
						"y": 1168,
						"w": 38,
						"h": 43
					}
				},
				{
					"filename": "upg_armor.png",
					"rotated": false,
					"trimmed": true,
					"sourceSize": {
						"w": 64,
						"h": 64
					},
					"spriteSourceSize": {
						"x": 0,
						"y": 11,
						"w": 63,
						"h": 51
					},
					"frame": {
						"x": 454,
						"y": 1157,
						"w": 63,
						"h": 51
					}
				},
				{
					"filename": "upg_wand.png",
					"rotated": false,
					"trimmed": true,
					"sourceSize": {
						"w": 64,
						"h": 64
					},
					"spriteSourceSize": {
						"x": 0,
						"y": 3,
						"w": 55,
						"h": 59
					},
					"frame": {
						"x": 1484,
						"y": 1101,
						"w": 55,
						"h": 59
					}
				},
				{
					"filename": "wand.png",
					"rotated": false,
					"trimmed": true,
					"sourceSize": {
						"w": 64,
						"h": 64
					},
					"spriteSourceSize": {
						"x": 0,
						"y": 3,
						"w": 55,
						"h": 59
					},
					"frame": {
						"x": 1758,
						"y": 691,
						"w": 55,
						"h": 59
					}
				},
				{
					"filename": "upg_spear.png",
					"rotated": false,
					"trimmed": true,
					"sourceSize": {
						"w": 64,
						"h": 64
					},
					"spriteSourceSize": {
						"x": 0,
						"y": 5,
						"w": 54,
						"h": 59
					},
					"frame": {
						"x": 1541,
						"y": 1101,
						"w": 54,
						"h": 59
					}
				},
				{
					"filename": "upg_axeDouble.png",
					"rotated": false,
					"trimmed": true,
					"sourceSize": {
						"w": 64,
						"h": 64
					},
					"spriteSourceSize": {
						"x": 2,
						"y": 3,
						"w": 57,
						"h": 55
					},
					"frame": {
						"x": 1820,
						"y": 631,
						"w": 57,
						"h": 55
					}
				},
				{
					"filename": "upg_helmet.png",
					"rotated": false,
					"trimmed": true,
					"sourceSize": {
						"w": 64,
						"h": 64
					},
					"spriteSourceSize": {
						"x": 16,
						"y": 8,
						"w": 32,
						"h": 43
					},
					"frame": {
						"x": 1843,
						"y": 1168,
						"w": 32,
						"h": 43
					}
				},
				{
					"filename": "upg_hammer.png",
					"rotated": false,
					"trimmed": true,
					"sourceSize": {
						"w": 64,
						"h": 64
					},
					"spriteSourceSize": {
						"x": 6,
						"y": 1,
						"w": 52,
						"h": 56
					},
					"frame": {
						"x": 1928,
						"y": 849,
						"w": 52,
						"h": 56
					}
				},
				{
					"filename": "hammer.png",
					"rotated": false,
					"trimmed": true,
					"sourceSize": {
						"w": 64,
						"h": 64
					},
					"spriteSourceSize": {
						"x": 6,
						"y": 2,
						"w": 52,
						"h": 55
					},
					"frame": {
						"x": 1597,
						"y": 1101,
						"w": 52,
						"h": 55
					}
				},
				{
					"filename": "armor.png",
					"rotated": false,
					"trimmed": true,
					"sourceSize": {
						"w": 64,
						"h": 64
					},
					"spriteSourceSize": {
						"x": 0,
						"y": 13,
						"w": 60,
						"h": 46
					},
					"frame": {
						"x": 910,
						"y": 774,
						"w": 60,
						"h": 46
					}
				},
				{
					"filename": "axeDouble.png",
					"rotated": false,
					"trimmed": true,
					"sourceSize": {
						"w": 64,
						"h": 64
					},
					"spriteSourceSize": {
						"x": 4,
						"y": 4,
						"w": 54,
						"h": 52
					},
					"frame": {
						"x": 519,
						"y": 1157,
						"w": 54,
						"h": 52
					}
				},
				{
					"filename": "axeDouble2.png",
					"rotated": false,
					"trimmed": true,
					"sourceSize": {
						"w": 64,
						"h": 64
					},
					"spriteSourceSize": {
						"x": 4,
						"y": 4,
						"w": 53,
						"h": 52
					},
					"frame": {
						"x": 575,
						"y": 1157,
						"w": 53,
						"h": 52
					}
				},
				{
					"filename": "helmet.png",
					"rotated": false,
					"trimmed": true,
					"sourceSize": {
						"w": 64,
						"h": 64
					},
					"spriteSourceSize": {
						"x": 16,
						"y": 12,
						"w": 32,
						"h": 39
					},
					"frame": {
						"x": 865,
						"y": 444,
						"w": 32,
						"h": 39
					}
				},
				{
					"filename": "bow.png",
					"rotated": false,
					"trimmed": true,
					"sourceSize": {
						"w": 64,
						"h": 64
					},
					"spriteSourceSize": {
						"x": 10,
						"y": 6,
						"w": 42,
						"h": 52
					},
					"frame": {
						"x": 1928,
						"y": 907,
						"w": 42,
						"h": 52
					}
				},
				{
					"filename": "upg_bow.png",
					"rotated": false,
					"trimmed": true,
					"sourceSize": {
						"w": 64,
						"h": 64
					},
					"spriteSourceSize": {
						"x": 10,
						"y": 6,
						"w": 42,
						"h": 52
					},
					"frame": {
						"x": 630,
						"y": 1157,
						"w": 42,
						"h": 52
					}
				},
				{
					"filename": "sword.png",
					"rotated": false,
					"trimmed": true,
					"sourceSize": {
						"w": 64,
						"h": 64
					},
					"spriteSourceSize": {
						"x": 11,
						"y": 9,
						"w": 45,
						"h": 48
					},
					"frame": {
						"x": 674,
						"y": 1157,
						"w": 45,
						"h": 48
					}
				},
				{
					"filename": "upg_sword.png",
					"rotated": false,
					"trimmed": true,
					"sourceSize": {
						"w": 64,
						"h": 64
					},
					"spriteSourceSize": {
						"x": 11,
						"y": 9,
						"w": 45,
						"h": 48
					},
					"frame": {
						"x": 721,
						"y": 1157,
						"w": 45,
						"h": 48
					}
				},
				{
					"filename": "tools.png",
					"rotated": false,
					"trimmed": true,
					"sourceSize": {
						"w": 64,
						"h": 64
					},
					"spriteSourceSize": {
						"x": 9,
						"y": 10,
						"w": 46,
						"h": 44
					},
					"frame": {
						"x": 768,
						"y": 1157,
						"w": 46,
						"h": 44
					}
				},
				{
					"filename": "swordWood.png",
					"rotated": false,
					"trimmed": true,
					"sourceSize": {
						"w": 64,
						"h": 64
					},
					"spriteSourceSize": {
						"x": 12,
						"y": 13,
						"w": 40,
						"h": 38
					},
					"frame": {
						"x": 1758,
						"y": 752,
						"w": 40,
						"h": 38
					}
				},
				{
					"filename": "shield.png",
					"rotated": false,
					"trimmed": true,
					"sourceSize": {
						"w": 64,
						"h": 64
					},
					"spriteSourceSize": {
						"x": 10,
						"y": 8,
						"w": 41,
						"h": 48
					},
					"frame": {
						"x": 816,
						"y": 1157,
						"w": 41,
						"h": 48
					}
				},
				{
					"filename": "tome.png",
					"rotated": false,
					"trimmed": true,
					"sourceSize": {
						"w": 64,
						"h": 64
					},
					"spriteSourceSize": {
						"x": 10,
						"y": 9,
						"w": 41,
						"h": 48
					},
					"frame": {
						"x": 859,
						"y": 1157,
						"w": 41,
						"h": 48
					}
				},
				{
					"filename": "envelope.png",
					"rotated": false,
					"trimmed": true,
					"sourceSize": {
						"w": 64,
						"h": 64
					},
					"spriteSourceSize": {
						"x": 12,
						"y": 13,
						"w": 41,
						"h": 40
					},
					"frame": {
						"x": 1877,
						"y": 1168,
						"w": 41,
						"h": 40
					}
				},
				{
					"filename": "upg_shield.png",
					"rotated": false,
					"trimmed": true,
					"sourceSize": {
						"w": 64,
						"h": 64
					},
					"spriteSourceSize": {
						"x": 10,
						"y": 9,
						"w": 41,
						"h": 46
					},
					"frame": {
						"x": 1944,
						"y": 191,
						"w": 41,
						"h": 46
					}
				},
				{
					"filename": "map.png",
					"rotated": false,
					"trimmed": true,
					"sourceSize": {
						"w": 64,
						"h": 64
					},
					"spriteSourceSize": {
						"x": 15,
						"y": 10,
						"w": 36,
						"h": 45
					},
					"frame": {
						"x": 1944,
						"y": 239,
						"w": 36,
						"h": 45
					}
				},
				{
					"filename": "shieldSmall.png",
					"rotated": false,
					"trimmed": true,
					"sourceSize": {
						"w": 64,
						"h": 64
					},
					"spriteSourceSize": {
						"x": 12,
						"y": 13,
						"w": 38,
						"h": 40
					},
					"frame": {
						"x": 1944,
						"y": 286,
						"w": 38,
						"h": 40
					}
				},
				{
					"filename": "potionBlue.png",
					"rotated": false,
					"trimmed": true,
					"sourceSize": {
						"w": 64,
						"h": 64
					},
					"spriteSourceSize": {
						"x": 17,
						"y": 13,
						"w": 32,
						"h": 37
					},
					"frame": {
						"x": 899,
						"y": 444,
						"w": 32,
						"h": 37
					}
				},
				{
					"filename": "potionGreen.png",
					"rotated": false,
					"trimmed": true,
					"sourceSize": {
						"w": 64,
						"h": 64
					},
					"spriteSourceSize": {
						"x": 17,
						"y": 13,
						"w": 32,
						"h": 37
					},
					"frame": {
						"x": 1944,
						"y": 328,
						"w": 32,
						"h": 37
					}
				},
				{
					"filename": "potionRed.png",
					"rotated": false,
					"trimmed": true,
					"sourceSize": {
						"w": 64,
						"h": 64
					},
					"spriteSourceSize": {
						"x": 17,
						"y": 13,
						"w": 32,
						"h": 37
					},
					"frame": {
						"x": 933,
						"y": 444,
						"w": 32,
						"h": 37
					}
				},
				{
					"filename": "coin.png",
					"rotated": false,
					"trimmed": true,
					"sourceSize": {
						"w": 64,
						"h": 64
					},
					"spriteSourceSize": {
						"x": 21,
						"y": 19,
						"w": 36,
						"h": 32
					},
					"frame": {
						"x": 1290,
						"y": 1162,
						"w": 36,
						"h": 32
					}
				},
				{
					"filename": "heart.png",
					"rotated": false,
					"trimmed": true,
					"sourceSize": {
						"w": 64,
						"h": 64
					},
					"spriteSourceSize": {
						"x": 15,
						"y": 17,
						"w": 34,
						"h": 32
					},
					"frame": {
						"x": 1328,
						"y": 1162,
						"w": 34,
						"h": 32
					}
				},
				{
					"filename": "x.png",
					"rotated": false,
					"trimmed": true,
					"sourceSize": {
						"w": 64,
						"h": 64
					},
					"spriteSourceSize": {
						"x": 15,
						"y": 15,
						"w": 34,
						"h": 34
					},
					"frame": {
						"x": 1364,
						"y": 1162,
						"w": 34,
						"h": 34
					}
				},
				{
					"filename": "scroll.png",
					"rotated": false,
					"trimmed": true,
					"sourceSize": {
						"w": 64,
						"h": 64
					},
					"spriteSourceSize": {
						"x": 18,
						"y": 16,
						"w": 30,
						"h": 31
					},
					"frame": {
						"x": 1400,
						"y": 1162,
						"w": 30,
						"h": 31
					}
				},
				{
					"filename": "upg_dagger.png",
					"rotated": false,
					"trimmed": true,
					"sourceSize": {
						"w": 64,
						"h": 64
					},
					"spriteSourceSize": {
						"x": 18,
						"y": 20,
						"w": 28,
						"h": 33
					},
					"frame": {
						"x": 1432,
						"y": 1162,
						"w": 28,
						"h": 33
					}
				},
				{
					"filename": "dagger.png",
					"rotated": false,
					"trimmed": true,
					"sourceSize": {
						"w": 64,
						"h": 64
					},
					"spriteSourceSize": {
						"x": 18,
						"y": 20,
						"w": 27,
						"h": 32
					},
					"frame": {
						"x": 1462,
						"y": 1162,
						"w": 27,
						"h": 32
					}
				},
				{
					"filename": "gemBlue.png",
					"rotated": false,
					"trimmed": true,
					"sourceSize": {
						"w": 64,
						"h": 64
					},
					"spriteSourceSize": {
						"x": 19,
						"y": 21,
						"w": 25,
						"h": 23
					},
					"frame": {
						"x": 1978,
						"y": 328,
						"w": 25,
						"h": 23
					}
				},
				{
					"filename": "gemGreen.png",
					"rotated": false,
					"trimmed": true,
					"sourceSize": {
						"w": 64,
						"h": 64
					},
					"spriteSourceSize": {
						"x": 19,
						"y": 21,
						"w": 25,
						"h": 23
					},
					"frame": {
						"x": 1978,
						"y": 353,
						"w": 25,
						"h": 23
					}
				},
				{
					"filename": "gemRed.png",
					"rotated": false,
					"trimmed": true,
					"sourceSize": {
						"w": 64,
						"h": 64
					},
					"spriteSourceSize": {
						"x": 19,
						"y": 21,
						"w": 25,
						"h": 23
					},
					"frame": {
						"x": 426,
						"y": 713,
						"w": 25,
						"h": 23
					}
				}
			]
		}
	],
	"meta": {
		"app": "https://www.codeandweb.com/texturepacker",
		"version": "3.0",
		"smartupdate": "$TexturePacker:SmartUpdate:a9512de1eda90d263762b5bfdce594f0:233b645fbf2fcfc1dd10291472db1785:61dfa1dc0a4484958541fb706b90482b$"
	}
}
